{
	"info": {
		"_postman_id": "d140a6a5-dcba-4d91-9d64-9e1b3dd7d09d",
		"name": "CarsalesLight Web API",
		"schema": "https://schema.getpostman.com/json/collection/v2.1.0/collection.json"
	},
	"item": [
		{
			"name": "RetrieveVehicles",
			"item": [
				{
					"name": "GetVehicles",
					"request": {
						"method": "GET",
						"header": [
							{
								"key": "Content-Type",
								"value": "application/json"
							}
						],
						"body": {
							"mode": "raw",
							"raw": ""
						},
						"url": {
							"raw": "{{base_url}}/api/RetrieveVehicles/GetVehicles?Make=Toyota&IncludePrivate=true",
							"host": [
								"{{base_url}}"
							],
							"path": [
								"api",
								"RetrieveVehicles",
								"GetVehicles"
							],
							"query": [
								{
									"key": "Make",
									"value": "Toyota"
								},
								{
									"key": "IncludePrivate",
									"value": "true"
								}
							]
						}
					},
					"response": []
				},
				{
					"name": "GetVehicle",
					"request": {
						"method": "GET",
						"header": [
							{
								"key": "Content-Type",
								"value": "application/json"
							}
						],
						"body": {
							"mode": "raw",
							"raw": ""
						},
						"url": {
							"raw": "{{base_url}}/api/RetrieveVehicles/GetVehicle?id=1",
							"host": [
								"{{base_url}}"
							],
							"path": [
								"api",
								"RetrieveVehicles",
								"GetVehicle"
							],
							"query": [
								{
									"key": "id",
									"value": "1"
								}
							]
						}
					},
					"response": []
				},
				{
					"name": "GetMakes",
					"request": {
						"method": "GET",
						"header": [
							{
								"key": "Content-Type",
								"value": "application/json"
							}
						],
						"body": {
							"mode": "raw",
							"raw": ""
						},
						"url": {
							"raw": "{{base_url}}/api/RetrieveVehicles/GetVehicle?id=1",
							"host": [
								"{{base_url}}"
							],
							"path": [
								"api",
								"RetrieveVehicles",
								"GetVehicle"
							],
							"query": [
								{
									"key": "id",
									"value": "1"
								}
							]
						}
					},
					"response": []
				},
				{
					"name": "GetModels",
					"request": {
						"method": "GET",
						"header": [
							{
								"key": "Content-Type",
								"value": "application/json"
							}
						],
						"body": {
							"mode": "raw",
							"raw": ""
						},
						"url": {
							"raw": "{{base_url}}/api/RetrieveVehicles/GetModels",
							"host": [
								"{{base_url}}"
							],
							"path": [
								"api",
								"RetrieveVehicles",
								"GetModels"
							]
						}
					},
					"response": []
				},
				{
					"name": "GetTypes",
					"request": {
						"method": "GET",
						"header": [
							{
								"key": "Content-Type",
								"value": "application/json"
							}
						],
						"body": {
							"mode": "raw",
							"raw": ""
						},
						"url": {
							"raw": "{{base_url}}/api/RetrieveVehicles/GetModels",
							"host": [
								"{{base_url}}"
							],
							"path": [
								"api",
								"RetrieveVehicles",
								"GetModels"
							]
						}
					},
					"response": []
				}
			]
		},
		{
			"name": "Vehicle",
			"item": [
				{
					"name": "Post",
					"request": {
						"method": "POST",
						"header": [
							{
								"key": "Content-Type",
								"value": "application/json"
							},
							{
								"key": "authorization",
								"value": "Bearer {{token}}"
							}
						],
						"body": {
							"mode": "raw",
							"raw": "{\r\n  \"makeModel\": {\r\n    \"make\": \"Toyota\",\r\n    \"model\": \"Camry\"\r\n  },\r\n  \"type\": \"Car\",\r\n  \"year\": 2018,\r\n  \"options\": [\r\n    {\r\n      \"option\": \"BODY TYPE\",\r\n      \"comment\": \"Sedan\",\r\n      \"isDefault\": true\r\n    },\r\n    {\r\n      \"option\": \"Transmission\",\r\n      \"comment\": \"6 speed Sports Automatic\",\r\n      \"isDefault\": true\r\n    }\r\n  ],\r\n  \"comments\": \"Pre-owned\",\r\n  \"price\": 31000,\r\n  \"isDriveAwayPrice\": false,\r\n}"
						},
						"url": {
							"raw": "{{base_url}}/api/Vehicle",
							"host": [
								"{{base_url}}"
							],
							"path": [
								"api",
								"Vehicle"
							]
						}
					},
					"response": []
				},
				{
					"name": "Get",
					"request": {
						"method": "GET",
						"header": [
							{
								"key": "Content-Type",
								"value": "application/json"
							},
							{
								"key": "authorization",
								"value": "Bearer {{token}}"
							}
						],
						"body": {
							"mode": "raw",
							"raw": ""
						},
						"url": {
							"raw": "{{base_url}}/api/Vehicle",
							"host": [
								"{{base_url}}"
							],
							"path": [
								"api",
								"Vehicle"
							]
						}
					},
					"response": []
				},
				{
					"name": "Put",
					"request": {
						"method": "PUT",
						"header": [
							{
								"key": "Content-Type",
								"value": "application/json"
							},
							{
								"key": "authorization",
								"value": "Bearer {{token}}"
							}
						],
						"body": {
							"mode": "raw",
							"raw": "{\r\n  \"makeModel\": {\r\n    \"make\": \"Toyota\",\r\n    \"model\": \"Camry\"\r\n  },\r\n  \"type\": \"Car\",\r\n  \"year\": 2017,\r\n  \"options\": [\r\n    {\r\n      \"option\": \"BODY TYPE\",\r\n      \"comment\": \"Sedan\",\r\n      \"isDefault\": true\r\n    },\r\n    {\r\n      \"option\": \"Transmission\",\r\n      \"comment\": \"6 speed Sports Automatic\",\r\n      \"isDefault\": true\r\n    }\r\n  ],\r\n  \"comments\": \"Pre-owned\",\r\n  \"price\": 31000,\r\n  \"isDriveAwayPrice\": false,\r\n}"
						},
						"url": {
							"raw": "{{base_url}}/api/Vehicle?id=1",
							"host": [
								"{{base_url}}"
							],
							"path": [
								"api",
								"Vehicle"
							],
							"query": [
								{
									"key": "id",
									"value": "1"
								}
							]
						}
					},
					"response": []
				},
				{
					"name": "Delete",
					"request": {
						"method": "DELETE",
						"header": [
							{
								"key": "Content-Type",
								"value": "application/json"
							},
							{
								"key": "authorization",
								"value": "Bearer {{token}}"
							}
						],
						"body": {
							"mode": "raw",
							"raw": ""
						},
						"url": {
							"raw": "{{base_url}}/api/Vehicle?id=1",
							"host": [
								"{{base_url}}"
							],
							"path": [
								"api",
								"Vehicle"
							],
							"query": [
								{
									"key": "id",
									"value": "1"
								}
							]
						}
					},
					"response": []
				}
			]
		},
		{
			"name": "VehicleInfo",
			"item": [
				{
					"name": "PutVehicleType",
					"request": {
						"method": "PUT",
						"header": [
							{
								"key": "Content-Type",
								"value": "application/json"
							},
							{
								"key": "authorization",
								"value": "Bearer {{token}}"
							}
						],
						"body": {
							"mode": "raw",
							"raw": "{\r\n  \"info\": \"SUV\"\r\n}"
						},
						"url": {
							"raw": "{{base_url}}/api/VehicleInfo/PutVehicleType",
							"host": [
								"{{base_url}}"
							],
							"path": [
								"api",
								"VehicleInfo",
								"PutVehicleType"
							]
						}
					},
					"response": []
				},
				{
					"name": "PutVehicleOption",
					"request": {
						"method": "PUT",
						"header": [
							{
								"key": "Content-Type",
								"value": "application/json"
							},
							{
								"key": "authorization",
								"value": "Bearer {{token}}"
							}
						],
						"body": {
							"mode": "raw",
							"raw": "{\r\n  \"option\": \"Condition\",\r\n  \"comment\": \"As New\",\r\n  \"isDefault\": false\r\n}"
						},
						"url": {
							"raw": "{{base_url}}/api/VehicleInfo/PutVehicleOption?vehicleId=1",
							"host": [
								"{{base_url}}"
							],
							"path": [
								"api",
								"VehicleInfo",
								"PutVehicleOption"
							],
							"query": [
								{
									"key": "vehicleId",
									"value": "1"
								}
							]
						}
					},
					"response": []
				},
				{
					"name": "DeleteVehicleOption",
					"request": {
						"method": "DELETE",
						"header": [
							{
								"key": "Content-Type",
								"value": "application/json"
							},
							{
								"key": "authorization",
								"value": "Bearer {{token}}"
							}
						],
						"body": {
							"mode": "raw",
							"raw": "{\r\n  \"option\": \"Condition\",\r\n  \"comment\": \"As New\",\r\n  \"isDefault\": false\r\n}"
						},
						"url": {
							"raw": "{{base_url}}/api/VehicleInfo/DeleteVehicleOption?id=1",
							"host": [
								"{{base_url}}"
							],
							"path": [
								"api",
								"VehicleInfo",
								"DeleteVehicleOption"
							],
							"query": [
								{
									"key": "id",
									"value": "1"
								}
							]
						}
					},
					"response": []
				},
				{
					"name": "AddVehicleMakeModel",
					"request": {
						"method": "POST",
						"header": [
							{
								"key": "Content-Type",
								"value": "application/json"
							},
							{
								"key": "authorization",
								"value": "Bearer {{token}}"
							}
						],
						"body": {
							"mode": "raw",
							"raw": "{\r\n  \"make\": \"Holden\",\r\n  \"model\": \"Commodore\"\r\n}"
						},
						"url": {
							"raw": "{{base_url}}/api/VehicleInfo/AddVehicleMakeModel",
							"host": [
								"{{base_url}}"
							],
							"path": [
								"api",
								"VehicleInfo",
								"AddVehicleMakeModel"
							]
						}
					},
					"response": []
				},
				{
					"name": "DeleteVehicleModel",
					"request": {
						"method": "DELETE",
						"header": [
							{
								"key": "Content-Type",
								"value": "application/json"
							},
							{
								"key": "authorization",
								"value": "Bearer {{token}}"
							}
						],
						"body": {
							"mode": "raw",
							"raw": ""
						},
						"url": {
							"raw": "{{base_url}}/api/VehicleInfo/DeleteVehicleModel?id=2",
							"host": [
								"{{base_url}}"
							],
							"path": [
								"api",
								"VehicleInfo",
								"DeleteVehicleModel"
							],
							"query": [
								{
									"key": "id",
									"value": "2"
								}
							]
						}
					},
					"response": []
				},
				{
					"name": "DeleteVehicleMake",
					"request": {
						"method": "DELETE",
						"header": [
							{
								"key": "Content-Type",
								"value": "application/json"
							},
							{
								"key": "authorization",
								"value": "Bearer {{token}}"
							}
						],
						"body": {
							"mode": "raw",
							"raw": ""
						},
						"url": {
							"raw": "{{base_url}}/api/VehicleInfo/DeleteVehicleMake?id=2",
							"host": [
								"{{base_url}}"
							],
							"path": [
								"api",
								"VehicleInfo",
								"DeleteVehicleMake"
							],
							"query": [
								{
									"key": "id",
									"value": "2"
								}
							]
						}
					},
					"response": []
				}
			]
		},
		{
			"name": "Accounts",
			"request": {
				"method": "POST",
				"header": [
					{
						"key": "Content-Type",
						"value": "application/json"
					}
				],
				"body": {
					"mode": "raw",
					"raw": "{\r\n  \"email\": \"yuriy.donskikh@gmail.com\",\r\n  \"password\": \"P@ssw0rd\",\r\n  \"firstName\": \"Yuriy\",\r\n  \"lastName\": \"Donskikh\",\r\n  \"phoneNumber\": \"0450996522\",\r\n  \"company\": \"\",\r\n  \"abn\": \"\",\r\n  \"isDealer\": false\r\n}"
				},
				"url": {
					"raw": "{{base_url}}/api/Accounts",
					"host": [
						"{{base_url}}"
					],
					"path": [
						"api",
						"Accounts"
					]
				},
				"description": "Create Account"
			},
			"response": []
		},
		{
			"name": "Auth/login",
			"event": [
				{
					"listen": "prerequest",
					"script": {
						"id": "e0629424-83e4-45c9-80be-7fe6534ba00b",
						"type": "text/javascript",
						"exec": [
							""
						]
					}
				},
				{
					"listen": "test",
					"script": {
						"id": "093f741f-53fc-46cd-ab50-5fb23f37cc26",
						"type": "text/javascript",
						"exec": [
							"var auth = pm.response.json().auth_token;",
							"pm.environment.set(\"token\", auth);",
							"",
							"pm.test(\"authentificated\", function () {",
							"    pm.expect(auth).to.eql(pm.environment.get(\"token\"));",
							"});",
							""
						]
					}
				}
			],
			"request": {
				"method": "POST",
				"header": [
					{
						"key": "Content-Type",
						"value": "application/json"
					}
				],
				"body": {
					"mode": "raw",
					"raw": "{\r\n  \"userName\": \"yuriy.donskikh@gmail.com\",\r\n  \"password\": \"P@ssw0rd\"\r\n}"
				},
				"url": {
					"raw": "{{base_url}}/api/Auth/login",
					"host": [
						"{{base_url}}"
					],
					"path": [
						"api",
						"Auth",
						"login"
					]
				},
				"description": "Login under registered user"
			},
			"response": []
		}
	],
	"event": [
		{
			"listen": "prerequest",
			"script": {
				"id": "9fbce435-8bd3-4695-8618-4d97faa22d5f",
				"type": "text/javascript",
				"exec": [
					""
				]
			}
		},
		{
			"listen": "test",
			"script": {
				"id": "a8e4fc40-077e-427a-8274-0979515b90db",
				"type": "text/javascript",
				"exec": [
					""
				]
			}
		}
	],
	"variable": [
		{
			"id": "b8e6d07b-dbab-4ea5-ba2f-f757644f1e02",
			"key": "token",
			"value": "",
			"type": "string"
		}
	]
}